-- Merging decision tree log ---
manifest
ADDED from C:\Users\Dell\AndroidStudioProjects\Source_Code_Ch_6\6_13_Calendar\src\main\AndroidManifest.xml:1:1-24:12
INJECTED from C:\Users\Dell\AndroidStudioProjects\Source_Code_Ch_6\6_13_Calendar\src\main\AndroidManifest.xml:1:1-24:12
INJECTED from C:\Users\Dell\AndroidStudioProjects\Source_Code_Ch_6\6_13_Calendar\src\main\AndroidManifest.xml:1:1-24:12
INJECTED from C:\Users\Dell\AndroidStudioProjects\Source_Code_Ch_6\6_13_Calendar\src\main\AndroidManifest.xml:1:1-24:12
MERGED from [com.android.support:support-v4:24.1.1] C:\Users\Dell\.gradle\caches\transforms-2\files-2.1\5c52e0fb5f09419740e034e0ac08d757\support-v4-24.1.1\AndroidManifest.xml:17:1-27:12
INJECTED from C:\Users\Dell\AndroidStudioProjects\Source_Code_Ch_6\6_13_Calendar\src\main\AndroidManifest.xml:1:1-24:12
INJECTED from C:\Users\Dell\AndroidStudioProjects\Source_Code_Ch_6\6_13_Calendar\src\main\AndroidManifest.xml:1:1-24:12
INJECTED from C:\Users\Dell\AndroidStudioProjects\Source_Code_Ch_6\6_13_Calendar\src\main\AndroidManifest.xml:1:1-24:12
	package
		ADDED from C:\Users\Dell\AndroidStudioProjects\Source_Code_Ch_6\6_13_Calendar\src\main\AndroidManifest.xml:2:11-48
		INJECTED from C:\Users\Dell\AndroidStudioProjects\Source_Code_Ch_6\6_13_Calendar\src\main\AndroidManifest.xml
		INJECTED from C:\Users\Dell\AndroidStudioProjects\Source_Code_Ch_6\6_13_Calendar\src\main\AndroidManifest.xml
	android:versionName
		ADDED from C:\Users\Dell\AndroidStudioProjects\Source_Code_Ch_6\6_13_Calendar\src\main\AndroidManifest.xml:4:11-36
		INJECTED from C:\Users\Dell\AndroidStudioProjects\Source_Code_Ch_6\6_13_Calendar\src\main\AndroidManifest.xml
		INJECTED from C:\Users\Dell\AndroidStudioProjects\Source_Code_Ch_6\6_13_Calendar\src\main\AndroidManifest.xml
	xmlns:android
		ADDED from C:\Users\Dell\AndroidStudioProjects\Source_Code_Ch_6\6_13_Calendar\src\main\AndroidManifest.xml:1:11-69
	android:versionCode
		ADDED from C:\Users\Dell\AndroidStudioProjects\Source_Code_Ch_6\6_13_Calendar\src\main\AndroidManifest.xml:3:11-34
		INJECTED from C:\Users\Dell\AndroidStudioProjects\Source_Code_Ch_6\6_13_Calendar\src\main\AndroidManifest.xml
		INJECTED from C:\Users\Dell\AndroidStudioProjects\Source_Code_Ch_6\6_13_Calendar\src\main\AndroidManifest.xml
uses-permission#android.permission.READ_CALENDAR
ADDED from C:\Users\Dell\AndroidStudioProjects\Source_Code_Ch_6\6_13_Calendar\src\main\AndroidManifest.xml:6:5-71
	android:name
		ADDED from C:\Users\Dell\AndroidStudioProjects\Source_Code_Ch_6\6_13_Calendar\src\main\AndroidManifest.xml:6:22-69
uses-permission#android.permission.WRITE_CALENDAR
ADDED from C:\Users\Dell\AndroidStudioProjects\Source_Code_Ch_6\6_13_Calendar\src\main\AndroidManifest.xml:7:5-72
	android:name
		ADDED from C:\Users\Dell\AndroidStudioProjects\Source_Code_Ch_6\6_13_Calendar\src\main\AndroidManifest.xml:7:22-70
application
ADDED from C:\Users\Dell\AndroidStudioProjects\Source_Code_Ch_6\6_13_Calendar\src\main\AndroidManifest.xml:9:5-22:19
MERGED from [com.android.support:support-v4:24.1.1] C:\Users\Dell\.gradle\caches\transforms-2\files-2.1\5c52e0fb5f09419740e034e0ac08d757\support-v4-24.1.1\AndroidManifest.xml:25:5-20
MERGED from [com.android.support:support-v4:24.1.1] C:\Users\Dell\.gradle\caches\transforms-2\files-2.1\5c52e0fb5f09419740e034e0ac08d757\support-v4-24.1.1\AndroidManifest.xml:25:5-20
	android:label
		ADDED from C:\Users\Dell\AndroidStudioProjects\Source_Code_Ch_6\6_13_Calendar\src\main\AndroidManifest.xml:11:9-41
	android:icon
		ADDED from C:\Users\Dell\AndroidStudioProjects\Source_Code_Ch_6\6_13_Calendar\src\main\AndroidManifest.xml:10:9-45
	android:theme
		ADDED from C:\Users\Dell\AndroidStudioProjects\Source_Code_Ch_6\6_13_Calendar\src\main\AndroidManifest.xml:12:9-40
activity#com.androidrecipes.calendar.CalendarListActivity
ADDED from C:\Users\Dell\AndroidStudioProjects\Source_Code_Ch_6\6_13_Calendar\src\main\AndroidManifest.xml:13:9-20:20
	android:label
		ADDED from C:\Users\Dell\AndroidStudioProjects\Source_Code_Ch_6\6_13_Calendar\src\main\AndroidManifest.xml:15:13-56
	android:name
		ADDED from C:\Users\Dell\AndroidStudioProjects\Source_Code_Ch_6\6_13_Calendar\src\main\AndroidManifest.xml:14:13-49
intent-filter#action:name:android.intent.action.MAIN+category:name:android.intent.category.LAUNCHER
ADDED from C:\Users\Dell\AndroidStudioProjects\Source_Code_Ch_6\6_13_Calendar\src\main\AndroidManifest.xml:16:13-19:29
action#android.intent.action.MAIN
ADDED from C:\Users\Dell\AndroidStudioProjects\Source_Code_Ch_6\6_13_Calendar\src\main\AndroidManifest.xml:17:17-68
	android:name
		ADDED from C:\Users\Dell\AndroidStudioProjects\Source_Code_Ch_6\6_13_Calendar\src\main\AndroidManifest.xml:17:25-66
category#android.intent.category.LAUNCHER
ADDED from C:\Users\Dell\AndroidStudioProjects\Source_Code_Ch_6\6_13_Calendar\src\main\AndroidManifest.xml:18:17-76
	android:name
		ADDED from C:\Users\Dell\AndroidStudioProjects\Source_Code_Ch_6\6_13_Calendar\src\main\AndroidManifest.xml:18:27-74
activity#com.androidrecipes.calendar.CalendarDetailActivity
ADDED from C:\Users\Dell\AndroidStudioProjects\Source_Code_Ch_6\6_13_Calendar\src\main\AndroidManifest.xml:21:9-59
	android:name
		ADDED from C:\Users\Dell\AndroidStudioProjects\Source_Code_Ch_6\6_13_Calendar\src\main\AndroidManifest.xml:21:19-57
uses-sdk
INJECTED from C:\Users\Dell\AndroidStudioProjects\Source_Code_Ch_6\6_13_Calendar\src\main\AndroidManifest.xml reason: use-sdk injection requested
INJECTED from C:\Users\Dell\AndroidStudioProjects\Source_Code_Ch_6\6_13_Calendar\src\main\AndroidManifest.xml
INJECTED from C:\Users\Dell\AndroidStudioProjects\Source_Code_Ch_6\6_13_Calendar\src\main\AndroidManifest.xml
MERGED from [com.android.support:support-v4:24.1.1] C:\Users\Dell\.gradle\caches\transforms-2\files-2.1\5c52e0fb5f09419740e034e0ac08d757\support-v4-24.1.1\AndroidManifest.xml:21:5-23:54
MERGED from [com.android.support:support-v4:24.1.1] C:\Users\Dell\.gradle\caches\transforms-2\files-2.1\5c52e0fb5f09419740e034e0ac08d757\support-v4-24.1.1\AndroidManifest.xml:21:5-23:54
INJECTED from C:\Users\Dell\AndroidStudioProjects\Source_Code_Ch_6\6_13_Calendar\src\main\AndroidManifest.xml
INJECTED from C:\Users\Dell\AndroidStudioProjects\Source_Code_Ch_6\6_13_Calendar\src\main\AndroidManifest.xml
	tools:overrideLibrary
		ADDED from [com.android.support:support-v4:24.1.1] C:\Users\Dell\.gradle\caches\transforms-2\files-2.1\5c52e0fb5f09419740e034e0ac08d757\support-v4-24.1.1\AndroidManifest.xml:23:9-51
	android:targetSdkVersion
		INJECTED from C:\Users\Dell\AndroidStudioProjects\Source_Code_Ch_6\6_13_Calendar\src\main\AndroidManifest.xml
		ADDED from C:\Users\Dell\AndroidStudioProjects\Source_Code_Ch_6\6_13_Calendar\src\main\AndroidManifest.xml
		INJECTED from C:\Users\Dell\AndroidStudioProjects\Source_Code_Ch_6\6_13_Calendar\src\main\AndroidManifest.xml
	android:minSdkVersion
		INJECTED from C:\Users\Dell\AndroidStudioProjects\Source_Code_Ch_6\6_13_Calendar\src\main\AndroidManifest.xml
		ADDED from C:\Users\Dell\AndroidStudioProjects\Source_Code_Ch_6\6_13_Calendar\src\main\AndroidManifest.xml
		INJECTED from C:\Users\Dell\AndroidStudioProjects\Source_Code_Ch_6\6_13_Calendar\src\main\AndroidManifest.xml
