-- Merging decision tree log ---
manifest
ADDED from C:\Users\ZAHY\Documents\Uce - 20-20\Dispositivos\Proyectos android\dispositivos\2. Code_Samples_Chapter_2\2_18_ViewPager\src\main\AndroidManifest.xml:1:1-28:12
INJECTED from C:\Users\ZAHY\Documents\Uce - 20-20\Dispositivos\Proyectos android\dispositivos\2. Code_Samples_Chapter_2\2_18_ViewPager\src\main\AndroidManifest.xml:1:1-28:12
INJECTED from C:\Users\ZAHY\Documents\Uce - 20-20\Dispositivos\Proyectos android\dispositivos\2. Code_Samples_Chapter_2\2_18_ViewPager\src\main\AndroidManifest.xml:1:1-28:12
INJECTED from C:\Users\ZAHY\Documents\Uce - 20-20\Dispositivos\Proyectos android\dispositivos\2. Code_Samples_Chapter_2\2_18_ViewPager\src\main\AndroidManifest.xml:1:1-28:12
MERGED from [com.android.support:appcompat-v7:24.2.0] C:\Users\ZAHY\.gradle\caches\transforms-2\files-2.1\070b29a7d541d233bc20e30da1a6b3f4\appcompat-v7-24.2.0\AndroidManifest.xml:17:1-27:12
MERGED from [com.android.support:animated-vector-drawable:24.2.0] C:\Users\ZAHY\.gradle\caches\transforms-2\files-2.1\0b046dedfe71fa2aa09c3395b05f0709\animated-vector-drawable-24.2.0\AndroidManifest.xml:17:1-24:12
MERGED from [com.android.support:support-vector-drawable:24.2.0] C:\Users\ZAHY\.gradle\caches\transforms-2\files-2.1\a785ef5c4f3ad80adc3ebe035523a5dd\support-vector-drawable-24.2.0\AndroidManifest.xml:17:1-25:12
MERGED from [com.android.support:support-v4:24.2.0] C:\Users\ZAHY\.gradle\caches\transforms-2\files-2.1\965cac32d4712a854126d29fc27b4b6f\support-v4-24.2.0\AndroidManifest.xml:17:1-27:12
MERGED from [com.android.support:support-fragment:24.2.0] C:\Users\ZAHY\.gradle\caches\transforms-2\files-2.1\d862b7e35c640cabbe84b027ed2e8786\support-fragment-24.2.0\AndroidManifest.xml:17:1-27:12
MERGED from [com.android.support:support-core-utils:24.2.0] C:\Users\ZAHY\.gradle\caches\transforms-2\files-2.1\8b901186fdf39b7e4491efac3fb42311\support-core-utils-24.2.0\AndroidManifest.xml:17:1-27:12
MERGED from [com.android.support:support-media-compat:24.2.0] C:\Users\ZAHY\.gradle\caches\transforms-2\files-2.1\e7d74692dc5fc1dfced97d17f3ed0fe8\support-media-compat-24.2.0\AndroidManifest.xml:17:1-27:12
MERGED from [com.android.support:support-core-ui:24.2.0] C:\Users\ZAHY\.gradle\caches\transforms-2\files-2.1\9d1e37b184708e3ec782ad3f43de5240\support-core-ui-24.2.0\AndroidManifest.xml:17:1-27:12
MERGED from [com.android.support:support-compat:24.2.0] C:\Users\ZAHY\.gradle\caches\transforms-2\files-2.1\29030e63f5e8268ff2271585579c6d53\support-compat-24.2.0\AndroidManifest.xml:17:1-27:12
INJECTED from C:\Users\ZAHY\Documents\Uce - 20-20\Dispositivos\Proyectos android\dispositivos\2. Code_Samples_Chapter_2\2_18_ViewPager\src\main\AndroidManifest.xml:1:1-28:12
INJECTED from C:\Users\ZAHY\Documents\Uce - 20-20\Dispositivos\Proyectos android\dispositivos\2. Code_Samples_Chapter_2\2_18_ViewPager\src\main\AndroidManifest.xml:1:1-28:12
INJECTED from C:\Users\ZAHY\Documents\Uce - 20-20\Dispositivos\Proyectos android\dispositivos\2. Code_Samples_Chapter_2\2_18_ViewPager\src\main\AndroidManifest.xml:1:1-28:12
	package
		ADDED from C:\Users\ZAHY\Documents\Uce - 20-20\Dispositivos\Proyectos android\dispositivos\2. Code_Samples_Chapter_2\2_18_ViewPager\src\main\AndroidManifest.xml:2:11-49
		INJECTED from C:\Users\ZAHY\Documents\Uce - 20-20\Dispositivos\Proyectos android\dispositivos\2. Code_Samples_Chapter_2\2_18_ViewPager\src\main\AndroidManifest.xml
		INJECTED from C:\Users\ZAHY\Documents\Uce - 20-20\Dispositivos\Proyectos android\dispositivos\2. Code_Samples_Chapter_2\2_18_ViewPager\src\main\AndroidManifest.xml
	android:versionName
		ADDED from C:\Users\ZAHY\Documents\Uce - 20-20\Dispositivos\Proyectos android\dispositivos\2. Code_Samples_Chapter_2\2_18_ViewPager\src\main\AndroidManifest.xml:4:11-36
		INJECTED from C:\Users\ZAHY\Documents\Uce - 20-20\Dispositivos\Proyectos android\dispositivos\2. Code_Samples_Chapter_2\2_18_ViewPager\src\main\AndroidManifest.xml
		INJECTED from C:\Users\ZAHY\Documents\Uce - 20-20\Dispositivos\Proyectos android\dispositivos\2. Code_Samples_Chapter_2\2_18_ViewPager\src\main\AndroidManifest.xml
	xmlns:android
		ADDED from C:\Users\ZAHY\Documents\Uce - 20-20\Dispositivos\Proyectos android\dispositivos\2. Code_Samples_Chapter_2\2_18_ViewPager\src\main\AndroidManifest.xml:1:11-69
	android:versionCode
		ADDED from C:\Users\ZAHY\Documents\Uce - 20-20\Dispositivos\Proyectos android\dispositivos\2. Code_Samples_Chapter_2\2_18_ViewPager\src\main\AndroidManifest.xml:3:11-34
		INJECTED from C:\Users\ZAHY\Documents\Uce - 20-20\Dispositivos\Proyectos android\dispositivos\2. Code_Samples_Chapter_2\2_18_ViewPager\src\main\AndroidManifest.xml
		INJECTED from C:\Users\ZAHY\Documents\Uce - 20-20\Dispositivos\Proyectos android\dispositivos\2. Code_Samples_Chapter_2\2_18_ViewPager\src\main\AndroidManifest.xml
application
ADDED from C:\Users\ZAHY\Documents\Uce - 20-20\Dispositivos\Proyectos android\dispositivos\2. Code_Samples_Chapter_2\2_18_ViewPager\src\main\AndroidManifest.xml:6:5-26:19
MERGED from [com.android.support:appcompat-v7:24.2.0] C:\Users\ZAHY\.gradle\caches\transforms-2\files-2.1\070b29a7d541d233bc20e30da1a6b3f4\appcompat-v7-24.2.0\AndroidManifest.xml:25:5-20
MERGED from [com.android.support:appcompat-v7:24.2.0] C:\Users\ZAHY\.gradle\caches\transforms-2\files-2.1\070b29a7d541d233bc20e30da1a6b3f4\appcompat-v7-24.2.0\AndroidManifest.xml:25:5-20
MERGED from [com.android.support:animated-vector-drawable:24.2.0] C:\Users\ZAHY\.gradle\caches\transforms-2\files-2.1\0b046dedfe71fa2aa09c3395b05f0709\animated-vector-drawable-24.2.0\AndroidManifest.xml:22:5-20
MERGED from [com.android.support:animated-vector-drawable:24.2.0] C:\Users\ZAHY\.gradle\caches\transforms-2\files-2.1\0b046dedfe71fa2aa09c3395b05f0709\animated-vector-drawable-24.2.0\AndroidManifest.xml:22:5-20
MERGED from [com.android.support:support-vector-drawable:24.2.0] C:\Users\ZAHY\.gradle\caches\transforms-2\files-2.1\a785ef5c4f3ad80adc3ebe035523a5dd\support-vector-drawable-24.2.0\AndroidManifest.xml:23:5-20
MERGED from [com.android.support:support-vector-drawable:24.2.0] C:\Users\ZAHY\.gradle\caches\transforms-2\files-2.1\a785ef5c4f3ad80adc3ebe035523a5dd\support-vector-drawable-24.2.0\AndroidManifest.xml:23:5-20
MERGED from [com.android.support:support-v4:24.2.0] C:\Users\ZAHY\.gradle\caches\transforms-2\files-2.1\965cac32d4712a854126d29fc27b4b6f\support-v4-24.2.0\AndroidManifest.xml:25:5-20
MERGED from [com.android.support:support-v4:24.2.0] C:\Users\ZAHY\.gradle\caches\transforms-2\files-2.1\965cac32d4712a854126d29fc27b4b6f\support-v4-24.2.0\AndroidManifest.xml:25:5-20
MERGED from [com.android.support:support-fragment:24.2.0] C:\Users\ZAHY\.gradle\caches\transforms-2\files-2.1\d862b7e35c640cabbe84b027ed2e8786\support-fragment-24.2.0\AndroidManifest.xml:25:5-20
MERGED from [com.android.support:support-fragment:24.2.0] C:\Users\ZAHY\.gradle\caches\transforms-2\files-2.1\d862b7e35c640cabbe84b027ed2e8786\support-fragment-24.2.0\AndroidManifest.xml:25:5-20
MERGED from [com.android.support:support-core-utils:24.2.0] C:\Users\ZAHY\.gradle\caches\transforms-2\files-2.1\8b901186fdf39b7e4491efac3fb42311\support-core-utils-24.2.0\AndroidManifest.xml:25:5-20
MERGED from [com.android.support:support-core-utils:24.2.0] C:\Users\ZAHY\.gradle\caches\transforms-2\files-2.1\8b901186fdf39b7e4491efac3fb42311\support-core-utils-24.2.0\AndroidManifest.xml:25:5-20
MERGED from [com.android.support:support-media-compat:24.2.0] C:\Users\ZAHY\.gradle\caches\transforms-2\files-2.1\e7d74692dc5fc1dfced97d17f3ed0fe8\support-media-compat-24.2.0\AndroidManifest.xml:25:5-20
MERGED from [com.android.support:support-media-compat:24.2.0] C:\Users\ZAHY\.gradle\caches\transforms-2\files-2.1\e7d74692dc5fc1dfced97d17f3ed0fe8\support-media-compat-24.2.0\AndroidManifest.xml:25:5-20
MERGED from [com.android.support:support-core-ui:24.2.0] C:\Users\ZAHY\.gradle\caches\transforms-2\files-2.1\9d1e37b184708e3ec782ad3f43de5240\support-core-ui-24.2.0\AndroidManifest.xml:25:5-20
MERGED from [com.android.support:support-core-ui:24.2.0] C:\Users\ZAHY\.gradle\caches\transforms-2\files-2.1\9d1e37b184708e3ec782ad3f43de5240\support-core-ui-24.2.0\AndroidManifest.xml:25:5-20
MERGED from [com.android.support:support-compat:24.2.0] C:\Users\ZAHY\.gradle\caches\transforms-2\files-2.1\29030e63f5e8268ff2271585579c6d53\support-compat-24.2.0\AndroidManifest.xml:25:5-20
MERGED from [com.android.support:support-compat:24.2.0] C:\Users\ZAHY\.gradle\caches\transforms-2\files-2.1\29030e63f5e8268ff2271585579c6d53\support-compat-24.2.0\AndroidManifest.xml:25:5-20
	android:label
		ADDED from C:\Users\ZAHY\Documents\Uce - 20-20\Dispositivos\Proyectos android\dispositivos\2. Code_Samples_Chapter_2\2_18_ViewPager\src\main\AndroidManifest.xml:7:9-41
	android:icon
		ADDED from C:\Users\ZAHY\Documents\Uce - 20-20\Dispositivos\Proyectos android\dispositivos\2. Code_Samples_Chapter_2\2_18_ViewPager\src\main\AndroidManifest.xml:8:9-45
	android:theme
		ADDED from C:\Users\ZAHY\Documents\Uce - 20-20\Dispositivos\Proyectos android\dispositivos\2. Code_Samples_Chapter_2\2_18_ViewPager\src\main\AndroidManifest.xml:9:9-47
activity#com.androidrecipes.viewpager.PagerActivity
ADDED from C:\Users\ZAHY\Documents\Uce - 20-20\Dispositivos\Proyectos android\dispositivos\2. Code_Samples_Chapter_2\2_18_ViewPager\src\main\AndroidManifest.xml:10:9-17:20
	android:label
		ADDED from C:\Users\ZAHY\Documents\Uce - 20-20\Dispositivos\Proyectos android\dispositivos\2. Code_Samples_Chapter_2\2_18_ViewPager\src\main\AndroidManifest.xml:12:13-48
	android:name
		ADDED from C:\Users\ZAHY\Documents\Uce - 20-20\Dispositivos\Proyectos android\dispositivos\2. Code_Samples_Chapter_2\2_18_ViewPager\src\main\AndroidManifest.xml:11:13-42
intent-filter#action:name:android.intent.action.MAIN+category:name:android.intent.category.LAUNCHER
ADDED from C:\Users\ZAHY\Documents\Uce - 20-20\Dispositivos\Proyectos android\dispositivos\2. Code_Samples_Chapter_2\2_18_ViewPager\src\main\AndroidManifest.xml:13:13-16:29
action#android.intent.action.MAIN
ADDED from C:\Users\ZAHY\Documents\Uce - 20-20\Dispositivos\Proyectos android\dispositivos\2. Code_Samples_Chapter_2\2_18_ViewPager\src\main\AndroidManifest.xml:14:17-68
	android:name
		ADDED from C:\Users\ZAHY\Documents\Uce - 20-20\Dispositivos\Proyectos android\dispositivos\2. Code_Samples_Chapter_2\2_18_ViewPager\src\main\AndroidManifest.xml:14:25-66
category#android.intent.category.LAUNCHER
ADDED from C:\Users\ZAHY\Documents\Uce - 20-20\Dispositivos\Proyectos android\dispositivos\2. Code_Samples_Chapter_2\2_18_ViewPager\src\main\AndroidManifest.xml:15:17-76
	android:name
		ADDED from C:\Users\ZAHY\Documents\Uce - 20-20\Dispositivos\Proyectos android\dispositivos\2. Code_Samples_Chapter_2\2_18_ViewPager\src\main\AndroidManifest.xml:15:27-74
activity#com.androidrecipes.viewpager.FragmentPagerActivity
ADDED from C:\Users\ZAHY\Documents\Uce - 20-20\Dispositivos\Proyectos android\dispositivos\2. Code_Samples_Chapter_2\2_18_ViewPager\src\main\AndroidManifest.xml:18:9-25:20
	android:label
		ADDED from C:\Users\ZAHY\Documents\Uce - 20-20\Dispositivos\Proyectos android\dispositivos\2. Code_Samples_Chapter_2\2_18_ViewPager\src\main\AndroidManifest.xml:20:13-51
	android:name
		ADDED from C:\Users\ZAHY\Documents\Uce - 20-20\Dispositivos\Proyectos android\dispositivos\2. Code_Samples_Chapter_2\2_18_ViewPager\src\main\AndroidManifest.xml:19:13-50
uses-sdk
INJECTED from C:\Users\ZAHY\Documents\Uce - 20-20\Dispositivos\Proyectos android\dispositivos\2. Code_Samples_Chapter_2\2_18_ViewPager\src\main\AndroidManifest.xml reason: use-sdk injection requested
INJECTED from C:\Users\ZAHY\Documents\Uce - 20-20\Dispositivos\Proyectos android\dispositivos\2. Code_Samples_Chapter_2\2_18_ViewPager\src\main\AndroidManifest.xml
INJECTED from C:\Users\ZAHY\Documents\Uce - 20-20\Dispositivos\Proyectos android\dispositivos\2. Code_Samples_Chapter_2\2_18_ViewPager\src\main\AndroidManifest.xml
MERGED from [com.android.support:appcompat-v7:24.2.0] C:\Users\ZAHY\.gradle\caches\transforms-2\files-2.1\070b29a7d541d233bc20e30da1a6b3f4\appcompat-v7-24.2.0\AndroidManifest.xml:21:5-23:78
MERGED from [com.android.support:appcompat-v7:24.2.0] C:\Users\ZAHY\.gradle\caches\transforms-2\files-2.1\070b29a7d541d233bc20e30da1a6b3f4\appcompat-v7-24.2.0\AndroidManifest.xml:21:5-23:78
MERGED from [com.android.support:animated-vector-drawable:24.2.0] C:\Users\ZAHY\.gradle\caches\transforms-2\files-2.1\0b046dedfe71fa2aa09c3395b05f0709\animated-vector-drawable-24.2.0\AndroidManifest.xml:20:5-44
MERGED from [com.android.support:animated-vector-drawable:24.2.0] C:\Users\ZAHY\.gradle\caches\transforms-2\files-2.1\0b046dedfe71fa2aa09c3395b05f0709\animated-vector-drawable-24.2.0\AndroidManifest.xml:20:5-44
MERGED from [com.android.support:support-vector-drawable:24.2.0] C:\Users\ZAHY\.gradle\caches\transforms-2\files-2.1\a785ef5c4f3ad80adc3ebe035523a5dd\support-vector-drawable-24.2.0\AndroidManifest.xml:21:5-43
MERGED from [com.android.support:support-vector-drawable:24.2.0] C:\Users\ZAHY\.gradle\caches\transforms-2\files-2.1\a785ef5c4f3ad80adc3ebe035523a5dd\support-vector-drawable-24.2.0\AndroidManifest.xml:21:5-43
MERGED from [com.android.support:support-v4:24.2.0] C:\Users\ZAHY\.gradle\caches\transforms-2\files-2.1\965cac32d4712a854126d29fc27b4b6f\support-v4-24.2.0\AndroidManifest.xml:21:5-23:54
MERGED from [com.android.support:support-v4:24.2.0] C:\Users\ZAHY\.gradle\caches\transforms-2\files-2.1\965cac32d4712a854126d29fc27b4b6f\support-v4-24.2.0\AndroidManifest.xml:21:5-23:54
MERGED from [com.android.support:support-fragment:24.2.0] C:\Users\ZAHY\.gradle\caches\transforms-2\files-2.1\d862b7e35c640cabbe84b027ed2e8786\support-fragment-24.2.0\AndroidManifest.xml:21:5-23:60
MERGED from [com.android.support:support-fragment:24.2.0] C:\Users\ZAHY\.gradle\caches\transforms-2\files-2.1\d862b7e35c640cabbe84b027ed2e8786\support-fragment-24.2.0\AndroidManifest.xml:21:5-23:60
MERGED from [com.android.support:support-core-utils:24.2.0] C:\Users\ZAHY\.gradle\caches\transforms-2\files-2.1\8b901186fdf39b7e4491efac3fb42311\support-core-utils-24.2.0\AndroidManifest.xml:21:5-23:61
MERGED from [com.android.support:support-core-utils:24.2.0] C:\Users\ZAHY\.gradle\caches\transforms-2\files-2.1\8b901186fdf39b7e4491efac3fb42311\support-core-utils-24.2.0\AndroidManifest.xml:21:5-23:61
MERGED from [com.android.support:support-media-compat:24.2.0] C:\Users\ZAHY\.gradle\caches\transforms-2\files-2.1\e7d74692dc5fc1dfced97d17f3ed0fe8\support-media-compat-24.2.0\AndroidManifest.xml:21:5-23:63
MERGED from [com.android.support:support-media-compat:24.2.0] C:\Users\ZAHY\.gradle\caches\transforms-2\files-2.1\e7d74692dc5fc1dfced97d17f3ed0fe8\support-media-compat-24.2.0\AndroidManifest.xml:21:5-23:63
MERGED from [com.android.support:support-core-ui:24.2.0] C:\Users\ZAHY\.gradle\caches\transforms-2\files-2.1\9d1e37b184708e3ec782ad3f43de5240\support-core-ui-24.2.0\AndroidManifest.xml:21:5-23:58
MERGED from [com.android.support:support-core-ui:24.2.0] C:\Users\ZAHY\.gradle\caches\transforms-2\files-2.1\9d1e37b184708e3ec782ad3f43de5240\support-core-ui-24.2.0\AndroidManifest.xml:21:5-23:58
MERGED from [com.android.support:support-compat:24.2.0] C:\Users\ZAHY\.gradle\caches\transforms-2\files-2.1\29030e63f5e8268ff2271585579c6d53\support-compat-24.2.0\AndroidManifest.xml:21:5-23:58
MERGED from [com.android.support:support-compat:24.2.0] C:\Users\ZAHY\.gradle\caches\transforms-2\files-2.1\29030e63f5e8268ff2271585579c6d53\support-compat-24.2.0\AndroidManifest.xml:21:5-23:58
INJECTED from C:\Users\ZAHY\Documents\Uce - 20-20\Dispositivos\Proyectos android\dispositivos\2. Code_Samples_Chapter_2\2_18_ViewPager\src\main\AndroidManifest.xml
INJECTED from C:\Users\ZAHY\Documents\Uce - 20-20\Dispositivos\Proyectos android\dispositivos\2. Code_Samples_Chapter_2\2_18_ViewPager\src\main\AndroidManifest.xml
	tools:overrideLibrary
		ADDED from [com.android.support:appcompat-v7:24.2.0] C:\Users\ZAHY\.gradle\caches\transforms-2\files-2.1\070b29a7d541d233bc20e30da1a6b3f4\appcompat-v7-24.2.0\AndroidManifest.xml:23:9-75
	android:targetSdkVersion
		INJECTED from C:\Users\ZAHY\Documents\Uce - 20-20\Dispositivos\Proyectos android\dispositivos\2. Code_Samples_Chapter_2\2_18_ViewPager\src\main\AndroidManifest.xml
		ADDED from C:\Users\ZAHY\Documents\Uce - 20-20\Dispositivos\Proyectos android\dispositivos\2. Code_Samples_Chapter_2\2_18_ViewPager\src\main\AndroidManifest.xml
		INJECTED from C:\Users\ZAHY\Documents\Uce - 20-20\Dispositivos\Proyectos android\dispositivos\2. Code_Samples_Chapter_2\2_18_ViewPager\src\main\AndroidManifest.xml
	android:minSdkVersion
		INJECTED from C:\Users\ZAHY\Documents\Uce - 20-20\Dispositivos\Proyectos android\dispositivos\2. Code_Samples_Chapter_2\2_18_ViewPager\src\main\AndroidManifest.xml
		ADDED from C:\Users\ZAHY\Documents\Uce - 20-20\Dispositivos\Proyectos android\dispositivos\2. Code_Samples_Chapter_2\2_18_ViewPager\src\main\AndroidManifest.xml
		INJECTED from C:\Users\ZAHY\Documents\Uce - 20-20\Dispositivos\Proyectos android\dispositivos\2. Code_Samples_Chapter_2\2_18_ViewPager\src\main\AndroidManifest.xml
