-- Merging decision tree log ---
manifest
ADDED from /Users/bryancamacho/Desktop/Bryan/Universidad/Octavo/Dispositivos moviles/Cap 2 - Android/2_06_AlertDialog/src/main/AndroidManifest.xml:1:1-28:12
INJECTED from /Users/bryancamacho/Desktop/Bryan/Universidad/Octavo/Dispositivos moviles/Cap 2 - Android/2_06_AlertDialog/src/main/AndroidManifest.xml:1:1-28:12
INJECTED from /Users/bryancamacho/Desktop/Bryan/Universidad/Octavo/Dispositivos moviles/Cap 2 - Android/2_06_AlertDialog/src/main/AndroidManifest.xml:1:1-28:12
INJECTED from /Users/bryancamacho/Desktop/Bryan/Universidad/Octavo/Dispositivos moviles/Cap 2 - Android/2_06_AlertDialog/src/main/AndroidManifest.xml:1:1-28:12
MERGED from [com.android.support:support-v4:24.2.0] /Users/bryancamacho/.gradle/caches/transforms-2/files-2.1/9a9d791ba52855a770af4e439c23f4b1/support-v4-24.2.0/AndroidManifest.xml:17:1-27:12
MERGED from [com.android.support:support-fragment:24.2.0] /Users/bryancamacho/.gradle/caches/transforms-2/files-2.1/42f98aa038aa33830388790715b4c6f5/support-fragment-24.2.0/AndroidManifest.xml:17:1-27:12
MERGED from [com.android.support:support-core-utils:24.2.0] /Users/bryancamacho/.gradle/caches/transforms-2/files-2.1/9ffe9e43ea87a0fead44691256a2ed3b/support-core-utils-24.2.0/AndroidManifest.xml:17:1-27:12
MERGED from [com.android.support:support-media-compat:24.2.0] /Users/bryancamacho/.gradle/caches/transforms-2/files-2.1/c5a65590d158564f374f8d4008dd91a8/support-media-compat-24.2.0/AndroidManifest.xml:17:1-27:12
MERGED from [com.android.support:support-core-ui:24.2.0] /Users/bryancamacho/.gradle/caches/transforms-2/files-2.1/3c58718e9c8b83f8b34b4276fd86818f/support-core-ui-24.2.0/AndroidManifest.xml:17:1-27:12
MERGED from [com.android.support:support-compat:24.2.0] /Users/bryancamacho/.gradle/caches/transforms-2/files-2.1/8fb28ad6690bd5dd12ff3ef0aeeb6c73/support-compat-24.2.0/AndroidManifest.xml:17:1-27:12
INJECTED from /Users/bryancamacho/Desktop/Bryan/Universidad/Octavo/Dispositivos moviles/Cap 2 - Android/2_06_AlertDialog/src/main/AndroidManifest.xml:1:1-28:12
INJECTED from /Users/bryancamacho/Desktop/Bryan/Universidad/Octavo/Dispositivos moviles/Cap 2 - Android/2_06_AlertDialog/src/main/AndroidManifest.xml:1:1-28:12
INJECTED from /Users/bryancamacho/Desktop/Bryan/Universidad/Octavo/Dispositivos moviles/Cap 2 - Android/2_06_AlertDialog/src/main/AndroidManifest.xml:1:1-28:12
	package
		ADDED from /Users/bryancamacho/Desktop/Bryan/Universidad/Octavo/Dispositivos moviles/Cap 2 - Android/2_06_AlertDialog/src/main/AndroidManifest.xml:2:11-51
		INJECTED from /Users/bryancamacho/Desktop/Bryan/Universidad/Octavo/Dispositivos moviles/Cap 2 - Android/2_06_AlertDialog/src/main/AndroidManifest.xml
		INJECTED from /Users/bryancamacho/Desktop/Bryan/Universidad/Octavo/Dispositivos moviles/Cap 2 - Android/2_06_AlertDialog/src/main/AndroidManifest.xml
	android:versionName
		ADDED from /Users/bryancamacho/Desktop/Bryan/Universidad/Octavo/Dispositivos moviles/Cap 2 - Android/2_06_AlertDialog/src/main/AndroidManifest.xml:4:11-36
		INJECTED from /Users/bryancamacho/Desktop/Bryan/Universidad/Octavo/Dispositivos moviles/Cap 2 - Android/2_06_AlertDialog/src/main/AndroidManifest.xml
		INJECTED from /Users/bryancamacho/Desktop/Bryan/Universidad/Octavo/Dispositivos moviles/Cap 2 - Android/2_06_AlertDialog/src/main/AndroidManifest.xml
	xmlns:android
		ADDED from /Users/bryancamacho/Desktop/Bryan/Universidad/Octavo/Dispositivos moviles/Cap 2 - Android/2_06_AlertDialog/src/main/AndroidManifest.xml:1:11-69
	android:versionCode
		ADDED from /Users/bryancamacho/Desktop/Bryan/Universidad/Octavo/Dispositivos moviles/Cap 2 - Android/2_06_AlertDialog/src/main/AndroidManifest.xml:3:11-34
		INJECTED from /Users/bryancamacho/Desktop/Bryan/Universidad/Octavo/Dispositivos moviles/Cap 2 - Android/2_06_AlertDialog/src/main/AndroidManifest.xml
		INJECTED from /Users/bryancamacho/Desktop/Bryan/Universidad/Octavo/Dispositivos moviles/Cap 2 - Android/2_06_AlertDialog/src/main/AndroidManifest.xml
application
ADDED from /Users/bryancamacho/Desktop/Bryan/Universidad/Octavo/Dispositivos moviles/Cap 2 - Android/2_06_AlertDialog/src/main/AndroidManifest.xml:6:5-26:19
MERGED from [com.android.support:support-v4:24.2.0] /Users/bryancamacho/.gradle/caches/transforms-2/files-2.1/9a9d791ba52855a770af4e439c23f4b1/support-v4-24.2.0/AndroidManifest.xml:25:5-20
MERGED from [com.android.support:support-v4:24.2.0] /Users/bryancamacho/.gradle/caches/transforms-2/files-2.1/9a9d791ba52855a770af4e439c23f4b1/support-v4-24.2.0/AndroidManifest.xml:25:5-20
MERGED from [com.android.support:support-fragment:24.2.0] /Users/bryancamacho/.gradle/caches/transforms-2/files-2.1/42f98aa038aa33830388790715b4c6f5/support-fragment-24.2.0/AndroidManifest.xml:25:5-20
MERGED from [com.android.support:support-fragment:24.2.0] /Users/bryancamacho/.gradle/caches/transforms-2/files-2.1/42f98aa038aa33830388790715b4c6f5/support-fragment-24.2.0/AndroidManifest.xml:25:5-20
MERGED from [com.android.support:support-core-utils:24.2.0] /Users/bryancamacho/.gradle/caches/transforms-2/files-2.1/9ffe9e43ea87a0fead44691256a2ed3b/support-core-utils-24.2.0/AndroidManifest.xml:25:5-20
MERGED from [com.android.support:support-core-utils:24.2.0] /Users/bryancamacho/.gradle/caches/transforms-2/files-2.1/9ffe9e43ea87a0fead44691256a2ed3b/support-core-utils-24.2.0/AndroidManifest.xml:25:5-20
MERGED from [com.android.support:support-media-compat:24.2.0] /Users/bryancamacho/.gradle/caches/transforms-2/files-2.1/c5a65590d158564f374f8d4008dd91a8/support-media-compat-24.2.0/AndroidManifest.xml:25:5-20
MERGED from [com.android.support:support-media-compat:24.2.0] /Users/bryancamacho/.gradle/caches/transforms-2/files-2.1/c5a65590d158564f374f8d4008dd91a8/support-media-compat-24.2.0/AndroidManifest.xml:25:5-20
MERGED from [com.android.support:support-core-ui:24.2.0] /Users/bryancamacho/.gradle/caches/transforms-2/files-2.1/3c58718e9c8b83f8b34b4276fd86818f/support-core-ui-24.2.0/AndroidManifest.xml:25:5-20
MERGED from [com.android.support:support-core-ui:24.2.0] /Users/bryancamacho/.gradle/caches/transforms-2/files-2.1/3c58718e9c8b83f8b34b4276fd86818f/support-core-ui-24.2.0/AndroidManifest.xml:25:5-20
MERGED from [com.android.support:support-compat:24.2.0] /Users/bryancamacho/.gradle/caches/transforms-2/files-2.1/8fb28ad6690bd5dd12ff3ef0aeeb6c73/support-compat-24.2.0/AndroidManifest.xml:25:5-20
MERGED from [com.android.support:support-compat:24.2.0] /Users/bryancamacho/.gradle/caches/transforms-2/files-2.1/8fb28ad6690bd5dd12ff3ef0aeeb6c73/support-compat-24.2.0/AndroidManifest.xml:25:5-20
	android:label
		ADDED from /Users/bryancamacho/Desktop/Bryan/Universidad/Octavo/Dispositivos moviles/Cap 2 - Android/2_06_AlertDialog/src/main/AndroidManifest.xml:7:9-41
	android:icon
		ADDED from /Users/bryancamacho/Desktop/Bryan/Universidad/Octavo/Dispositivos moviles/Cap 2 - Android/2_06_AlertDialog/src/main/AndroidManifest.xml:8:9-45
	android:theme
		ADDED from /Users/bryancamacho/Desktop/Bryan/Universidad/Octavo/Dispositivos moviles/Cap 2 - Android/2_06_AlertDialog/src/main/AndroidManifest.xml:9:9-40
activity#com.androidrecipes.alertdialog.DialogActivity
ADDED from /Users/bryancamacho/Desktop/Bryan/Universidad/Octavo/Dispositivos moviles/Cap 2 - Android/2_06_AlertDialog/src/main/AndroidManifest.xml:10:9-17:20
	android:label
		ADDED from /Users/bryancamacho/Desktop/Bryan/Universidad/Octavo/Dispositivos moviles/Cap 2 - Android/2_06_AlertDialog/src/main/AndroidManifest.xml:12:13-49
	android:name
		ADDED from /Users/bryancamacho/Desktop/Bryan/Universidad/Octavo/Dispositivos moviles/Cap 2 - Android/2_06_AlertDialog/src/main/AndroidManifest.xml:11:13-43
intent-filter#action:name:android.intent.action.MAIN+category:name:android.intent.category.LAUNCHER
ADDED from /Users/bryancamacho/Desktop/Bryan/Universidad/Octavo/Dispositivos moviles/Cap 2 - Android/2_06_AlertDialog/src/main/AndroidManifest.xml:13:13-16:29
action#android.intent.action.MAIN
ADDED from /Users/bryancamacho/Desktop/Bryan/Universidad/Octavo/Dispositivos moviles/Cap 2 - Android/2_06_AlertDialog/src/main/AndroidManifest.xml:14:17-68
	android:name
		ADDED from /Users/bryancamacho/Desktop/Bryan/Universidad/Octavo/Dispositivos moviles/Cap 2 - Android/2_06_AlertDialog/src/main/AndroidManifest.xml:14:25-66
category#android.intent.category.LAUNCHER
ADDED from /Users/bryancamacho/Desktop/Bryan/Universidad/Octavo/Dispositivos moviles/Cap 2 - Android/2_06_AlertDialog/src/main/AndroidManifest.xml:15:17-76
	android:name
		ADDED from /Users/bryancamacho/Desktop/Bryan/Universidad/Octavo/Dispositivos moviles/Cap 2 - Android/2_06_AlertDialog/src/main/AndroidManifest.xml:15:27-74
activity#com.androidrecipes.alertdialog.CustomItemActivity
ADDED from /Users/bryancamacho/Desktop/Bryan/Universidad/Octavo/Dispositivos moviles/Cap 2 - Android/2_06_AlertDialog/src/main/AndroidManifest.xml:18:9-25:20
	android:label
		ADDED from /Users/bryancamacho/Desktop/Bryan/Universidad/Octavo/Dispositivos moviles/Cap 2 - Android/2_06_AlertDialog/src/main/AndroidManifest.xml:20:13-49
	android:name
		ADDED from /Users/bryancamacho/Desktop/Bryan/Universidad/Octavo/Dispositivos moviles/Cap 2 - Android/2_06_AlertDialog/src/main/AndroidManifest.xml:19:13-47
uses-sdk
INJECTED from /Users/bryancamacho/Desktop/Bryan/Universidad/Octavo/Dispositivos moviles/Cap 2 - Android/2_06_AlertDialog/src/main/AndroidManifest.xml reason: use-sdk injection requested
INJECTED from /Users/bryancamacho/Desktop/Bryan/Universidad/Octavo/Dispositivos moviles/Cap 2 - Android/2_06_AlertDialog/src/main/AndroidManifest.xml
INJECTED from /Users/bryancamacho/Desktop/Bryan/Universidad/Octavo/Dispositivos moviles/Cap 2 - Android/2_06_AlertDialog/src/main/AndroidManifest.xml
MERGED from [com.android.support:support-v4:24.2.0] /Users/bryancamacho/.gradle/caches/transforms-2/files-2.1/9a9d791ba52855a770af4e439c23f4b1/support-v4-24.2.0/AndroidManifest.xml:21:5-23:54
MERGED from [com.android.support:support-v4:24.2.0] /Users/bryancamacho/.gradle/caches/transforms-2/files-2.1/9a9d791ba52855a770af4e439c23f4b1/support-v4-24.2.0/AndroidManifest.xml:21:5-23:54
MERGED from [com.android.support:support-fragment:24.2.0] /Users/bryancamacho/.gradle/caches/transforms-2/files-2.1/42f98aa038aa33830388790715b4c6f5/support-fragment-24.2.0/AndroidManifest.xml:21:5-23:60
MERGED from [com.android.support:support-fragment:24.2.0] /Users/bryancamacho/.gradle/caches/transforms-2/files-2.1/42f98aa038aa33830388790715b4c6f5/support-fragment-24.2.0/AndroidManifest.xml:21:5-23:60
MERGED from [com.android.support:support-core-utils:24.2.0] /Users/bryancamacho/.gradle/caches/transforms-2/files-2.1/9ffe9e43ea87a0fead44691256a2ed3b/support-core-utils-24.2.0/AndroidManifest.xml:21:5-23:61
MERGED from [com.android.support:support-core-utils:24.2.0] /Users/bryancamacho/.gradle/caches/transforms-2/files-2.1/9ffe9e43ea87a0fead44691256a2ed3b/support-core-utils-24.2.0/AndroidManifest.xml:21:5-23:61
MERGED from [com.android.support:support-media-compat:24.2.0] /Users/bryancamacho/.gradle/caches/transforms-2/files-2.1/c5a65590d158564f374f8d4008dd91a8/support-media-compat-24.2.0/AndroidManifest.xml:21:5-23:63
MERGED from [com.android.support:support-media-compat:24.2.0] /Users/bryancamacho/.gradle/caches/transforms-2/files-2.1/c5a65590d158564f374f8d4008dd91a8/support-media-compat-24.2.0/AndroidManifest.xml:21:5-23:63
MERGED from [com.android.support:support-core-ui:24.2.0] /Users/bryancamacho/.gradle/caches/transforms-2/files-2.1/3c58718e9c8b83f8b34b4276fd86818f/support-core-ui-24.2.0/AndroidManifest.xml:21:5-23:58
MERGED from [com.android.support:support-core-ui:24.2.0] /Users/bryancamacho/.gradle/caches/transforms-2/files-2.1/3c58718e9c8b83f8b34b4276fd86818f/support-core-ui-24.2.0/AndroidManifest.xml:21:5-23:58
MERGED from [com.android.support:support-compat:24.2.0] /Users/bryancamacho/.gradle/caches/transforms-2/files-2.1/8fb28ad6690bd5dd12ff3ef0aeeb6c73/support-compat-24.2.0/AndroidManifest.xml:21:5-23:58
MERGED from [com.android.support:support-compat:24.2.0] /Users/bryancamacho/.gradle/caches/transforms-2/files-2.1/8fb28ad6690bd5dd12ff3ef0aeeb6c73/support-compat-24.2.0/AndroidManifest.xml:21:5-23:58
INJECTED from /Users/bryancamacho/Desktop/Bryan/Universidad/Octavo/Dispositivos moviles/Cap 2 - Android/2_06_AlertDialog/src/main/AndroidManifest.xml
INJECTED from /Users/bryancamacho/Desktop/Bryan/Universidad/Octavo/Dispositivos moviles/Cap 2 - Android/2_06_AlertDialog/src/main/AndroidManifest.xml
	tools:overrideLibrary
		ADDED from [com.android.support:support-v4:24.2.0] /Users/bryancamacho/.gradle/caches/transforms-2/files-2.1/9a9d791ba52855a770af4e439c23f4b1/support-v4-24.2.0/AndroidManifest.xml:23:9-51
	android:targetSdkVersion
		INJECTED from /Users/bryancamacho/Desktop/Bryan/Universidad/Octavo/Dispositivos moviles/Cap 2 - Android/2_06_AlertDialog/src/main/AndroidManifest.xml
		ADDED from /Users/bryancamacho/Desktop/Bryan/Universidad/Octavo/Dispositivos moviles/Cap 2 - Android/2_06_AlertDialog/src/main/AndroidManifest.xml
		INJECTED from /Users/bryancamacho/Desktop/Bryan/Universidad/Octavo/Dispositivos moviles/Cap 2 - Android/2_06_AlertDialog/src/main/AndroidManifest.xml
	android:minSdkVersion
		INJECTED from /Users/bryancamacho/Desktop/Bryan/Universidad/Octavo/Dispositivos moviles/Cap 2 - Android/2_06_AlertDialog/src/main/AndroidManifest.xml
		ADDED from /Users/bryancamacho/Desktop/Bryan/Universidad/Octavo/Dispositivos moviles/Cap 2 - Android/2_06_AlertDialog/src/main/AndroidManifest.xml
		INJECTED from /Users/bryancamacho/Desktop/Bryan/Universidad/Octavo/Dispositivos moviles/Cap 2 - Android/2_06_AlertDialog/src/main/AndroidManifest.xml
