-- Merging decision tree log ---
manifest
ADDED from C:\Users\Dell\AndroidStudioProjects\Source_Code_Ch_6\6_17_AppWidget\src\main\AndroidManifest.xml:1:1-48:12
INJECTED from C:\Users\Dell\AndroidStudioProjects\Source_Code_Ch_6\6_17_AppWidget\src\main\AndroidManifest.xml:1:1-48:12
INJECTED from C:\Users\Dell\AndroidStudioProjects\Source_Code_Ch_6\6_17_AppWidget\src\main\AndroidManifest.xml:1:1-48:12
INJECTED from C:\Users\Dell\AndroidStudioProjects\Source_Code_Ch_6\6_17_AppWidget\src\main\AndroidManifest.xml:1:1-48:12
MERGED from [com.android.support:support-v4:24.1.1] C:\Users\Dell\.gradle\caches\transforms-2\files-2.1\5c52e0fb5f09419740e034e0ac08d757\support-v4-24.1.1\AndroidManifest.xml:17:1-27:12
INJECTED from C:\Users\Dell\AndroidStudioProjects\Source_Code_Ch_6\6_17_AppWidget\src\main\AndroidManifest.xml:1:1-48:12
INJECTED from C:\Users\Dell\AndroidStudioProjects\Source_Code_Ch_6\6_17_AppWidget\src\main\AndroidManifest.xml:1:1-48:12
INJECTED from C:\Users\Dell\AndroidStudioProjects\Source_Code_Ch_6\6_17_AppWidget\src\main\AndroidManifest.xml:1:1-48:12
	package
		ADDED from C:\Users\Dell\AndroidStudioProjects\Source_Code_Ch_6\6_17_AppWidget\src\main\AndroidManifest.xml:2:11-49
		INJECTED from C:\Users\Dell\AndroidStudioProjects\Source_Code_Ch_6\6_17_AppWidget\src\main\AndroidManifest.xml
		INJECTED from C:\Users\Dell\AndroidStudioProjects\Source_Code_Ch_6\6_17_AppWidget\src\main\AndroidManifest.xml
	android:versionName
		ADDED from C:\Users\Dell\AndroidStudioProjects\Source_Code_Ch_6\6_17_AppWidget\src\main\AndroidManifest.xml:4:11-36
		INJECTED from C:\Users\Dell\AndroidStudioProjects\Source_Code_Ch_6\6_17_AppWidget\src\main\AndroidManifest.xml
		INJECTED from C:\Users\Dell\AndroidStudioProjects\Source_Code_Ch_6\6_17_AppWidget\src\main\AndroidManifest.xml
	xmlns:android
		ADDED from C:\Users\Dell\AndroidStudioProjects\Source_Code_Ch_6\6_17_AppWidget\src\main\AndroidManifest.xml:1:11-69
	android:versionCode
		ADDED from C:\Users\Dell\AndroidStudioProjects\Source_Code_Ch_6\6_17_AppWidget\src\main\AndroidManifest.xml:3:11-34
		INJECTED from C:\Users\Dell\AndroidStudioProjects\Source_Code_Ch_6\6_17_AppWidget\src\main\AndroidManifest.xml
		INJECTED from C:\Users\Dell\AndroidStudioProjects\Source_Code_Ch_6\6_17_AppWidget\src\main\AndroidManifest.xml
application
ADDED from C:\Users\Dell\AndroidStudioProjects\Source_Code_Ch_6\6_17_AppWidget\src\main\AndroidManifest.xml:6:5-46:19
MERGED from [com.android.support:support-v4:24.1.1] C:\Users\Dell\.gradle\caches\transforms-2\files-2.1\5c52e0fb5f09419740e034e0ac08d757\support-v4-24.1.1\AndroidManifest.xml:25:5-20
MERGED from [com.android.support:support-v4:24.1.1] C:\Users\Dell\.gradle\caches\transforms-2\files-2.1\5c52e0fb5f09419740e034e0ac08d757\support-v4-24.1.1\AndroidManifest.xml:25:5-20
	android:label
		ADDED from C:\Users\Dell\AndroidStudioProjects\Source_Code_Ch_6\6_17_AppWidget\src\main\AndroidManifest.xml:7:9-41
	android:icon
		ADDED from C:\Users\Dell\AndroidStudioProjects\Source_Code_Ch_6\6_17_AppWidget\src\main\AndroidManifest.xml:8:9-45
	android:theme
		ADDED from C:\Users\Dell\AndroidStudioProjects\Source_Code_Ch_6\6_17_AppWidget\src\main\AndroidManifest.xml:9:9-40
activity#com.androidrecipes.appwidget.MainActivity
ADDED from C:\Users\Dell\AndroidStudioProjects\Source_Code_Ch_6\6_17_AppWidget\src\main\AndroidManifest.xml:11:9-16:20
	android:name
		ADDED from C:\Users\Dell\AndroidStudioProjects\Source_Code_Ch_6\6_17_AppWidget\src\main\AndroidManifest.xml:11:19-47
intent-filter#action:name:android.intent.action.MAIN+category:name:android.intent.category.LAUNCHER
ADDED from C:\Users\Dell\AndroidStudioProjects\Source_Code_Ch_6\6_17_AppWidget\src\main\AndroidManifest.xml:12:13-15:29
action#android.intent.action.MAIN
ADDED from C:\Users\Dell\AndroidStudioProjects\Source_Code_Ch_6\6_17_AppWidget\src\main\AndroidManifest.xml:13:17-68
	android:name
		ADDED from C:\Users\Dell\AndroidStudioProjects\Source_Code_Ch_6\6_17_AppWidget\src\main\AndroidManifest.xml:13:25-66
category#android.intent.category.LAUNCHER
ADDED from C:\Users\Dell\AndroidStudioProjects\Source_Code_Ch_6\6_17_AppWidget\src\main\AndroidManifest.xml:14:17-76
	android:name
		ADDED from C:\Users\Dell\AndroidStudioProjects\Source_Code_Ch_6\6_17_AppWidget\src\main\AndroidManifest.xml:14:27-74
receiver#com.androidrecipes.appwidget.SimpleAppWidget
ADDED from C:\Users\Dell\AndroidStudioProjects\Source_Code_Ch_6\6_17_AppWidget\src\main\AndroidManifest.xml:17:9-24:20
	android:name
		ADDED from C:\Users\Dell\AndroidStudioProjects\Source_Code_Ch_6\6_17_AppWidget\src\main\AndroidManifest.xml:17:19-50
intent-filter#action:name:android.appwidget.action.APPWIDGET_UPDATE
ADDED from C:\Users\Dell\AndroidStudioProjects\Source_Code_Ch_6\6_17_AppWidget\src\main\AndroidManifest.xml:18:13-20:29
action#android.appwidget.action.APPWIDGET_UPDATE
ADDED from C:\Users\Dell\AndroidStudioProjects\Source_Code_Ch_6\6_17_AppWidget\src\main\AndroidManifest.xml:19:17-83
	android:name
		ADDED from C:\Users\Dell\AndroidStudioProjects\Source_Code_Ch_6\6_17_AppWidget\src\main\AndroidManifest.xml:19:25-81
meta-data#android.appwidget.provider
ADDED from C:\Users\Dell\AndroidStudioProjects\Source_Code_Ch_6\6_17_AppWidget\src\main\AndroidManifest.xml:21:13-23:59
	android:resource
		ADDED from C:\Users\Dell\AndroidStudioProjects\Source_Code_Ch_6\6_17_AppWidget\src\main\AndroidManifest.xml:23:17-57
	android:name
		ADDED from C:\Users\Dell\AndroidStudioProjects\Source_Code_Ch_6\6_17_AppWidget\src\main\AndroidManifest.xml:22:17-58
service#com.androidrecipes.appwidget.RandomService
ADDED from C:\Users\Dell\AndroidStudioProjects\Source_Code_Ch_6\6_17_AppWidget\src\main\AndroidManifest.xml:25:9-49
	android:name
		ADDED from C:\Users\Dell\AndroidStudioProjects\Source_Code_Ch_6\6_17_AppWidget\src\main\AndroidManifest.xml:25:18-47
activity#com.androidrecipes.appwidget.ListWidgetConfigureActivity
ADDED from C:\Users\Dell\AndroidStudioProjects\Source_Code_Ch_6\6_17_AppWidget\src\main\AndroidManifest.xml:28:9-32:20
	android:name
		ADDED from C:\Users\Dell\AndroidStudioProjects\Source_Code_Ch_6\6_17_AppWidget\src\main\AndroidManifest.xml:28:19-62
intent-filter#action:name:android.appwidget.action.APPWIDGET_CONFIGURE
ADDED from C:\Users\Dell\AndroidStudioProjects\Source_Code_Ch_6\6_17_AppWidget\src\main\AndroidManifest.xml:29:13-31:29
action#android.appwidget.action.APPWIDGET_CONFIGURE
ADDED from C:\Users\Dell\AndroidStudioProjects\Source_Code_Ch_6\6_17_AppWidget\src\main\AndroidManifest.xml:30:17-86
	android:name
		ADDED from C:\Users\Dell\AndroidStudioProjects\Source_Code_Ch_6\6_17_AppWidget\src\main\AndroidManifest.xml:30:25-84
receiver#com.androidrecipes.appwidget.ListAppWidget
ADDED from C:\Users\Dell\AndroidStudioProjects\Source_Code_Ch_6\6_17_AppWidget\src\main\AndroidManifest.xml:33:9-40:20
	android:name
		ADDED from C:\Users\Dell\AndroidStudioProjects\Source_Code_Ch_6\6_17_AppWidget\src\main\AndroidManifest.xml:33:19-48
service#com.androidrecipes.appwidget.ListWidgetService
ADDED from C:\Users\Dell\AndroidStudioProjects\Source_Code_Ch_6\6_17_AppWidget\src\main\AndroidManifest.xml:42:9-44:71
	android:permission
		ADDED from C:\Users\Dell\AndroidStudioProjects\Source_Code_Ch_6\6_17_AppWidget\src\main\AndroidManifest.xml:44:13-69
	android:name
		ADDED from C:\Users\Dell\AndroidStudioProjects\Source_Code_Ch_6\6_17_AppWidget\src\main\AndroidManifest.xml:43:13-46
service#com.androidrecipes.appwidget.MediaService
ADDED from C:\Users\Dell\AndroidStudioProjects\Source_Code_Ch_6\6_17_AppWidget\src\main\AndroidManifest.xml:45:9-48
	android:name
		ADDED from C:\Users\Dell\AndroidStudioProjects\Source_Code_Ch_6\6_17_AppWidget\src\main\AndroidManifest.xml:45:18-46
uses-sdk
INJECTED from C:\Users\Dell\AndroidStudioProjects\Source_Code_Ch_6\6_17_AppWidget\src\main\AndroidManifest.xml reason: use-sdk injection requested
INJECTED from C:\Users\Dell\AndroidStudioProjects\Source_Code_Ch_6\6_17_AppWidget\src\main\AndroidManifest.xml
INJECTED from C:\Users\Dell\AndroidStudioProjects\Source_Code_Ch_6\6_17_AppWidget\src\main\AndroidManifest.xml
MERGED from [com.android.support:support-v4:24.1.1] C:\Users\Dell\.gradle\caches\transforms-2\files-2.1\5c52e0fb5f09419740e034e0ac08d757\support-v4-24.1.1\AndroidManifest.xml:21:5-23:54
MERGED from [com.android.support:support-v4:24.1.1] C:\Users\Dell\.gradle\caches\transforms-2\files-2.1\5c52e0fb5f09419740e034e0ac08d757\support-v4-24.1.1\AndroidManifest.xml:21:5-23:54
INJECTED from C:\Users\Dell\AndroidStudioProjects\Source_Code_Ch_6\6_17_AppWidget\src\main\AndroidManifest.xml
INJECTED from C:\Users\Dell\AndroidStudioProjects\Source_Code_Ch_6\6_17_AppWidget\src\main\AndroidManifest.xml
	tools:overrideLibrary
		ADDED from [com.android.support:support-v4:24.1.1] C:\Users\Dell\.gradle\caches\transforms-2\files-2.1\5c52e0fb5f09419740e034e0ac08d757\support-v4-24.1.1\AndroidManifest.xml:23:9-51
	android:targetSdkVersion
		INJECTED from C:\Users\Dell\AndroidStudioProjects\Source_Code_Ch_6\6_17_AppWidget\src\main\AndroidManifest.xml
		ADDED from C:\Users\Dell\AndroidStudioProjects\Source_Code_Ch_6\6_17_AppWidget\src\main\AndroidManifest.xml
		INJECTED from C:\Users\Dell\AndroidStudioProjects\Source_Code_Ch_6\6_17_AppWidget\src\main\AndroidManifest.xml
	android:minSdkVersion
		INJECTED from C:\Users\Dell\AndroidStudioProjects\Source_Code_Ch_6\6_17_AppWidget\src\main\AndroidManifest.xml
		ADDED from C:\Users\Dell\AndroidStudioProjects\Source_Code_Ch_6\6_17_AppWidget\src\main\AndroidManifest.xml
		INJECTED from C:\Users\Dell\AndroidStudioProjects\Source_Code_Ch_6\6_17_AppWidget\src\main\AndroidManifest.xml
