-- Merging decision tree log ---
manifest
ADDED from C:\Users\patri\Documents\Dispositivo moviles\Code_Samples_Chapter_2\2_11_CustomIME\src\main\AndroidManifest.xml:1:1-20:12
INJECTED from C:\Users\patri\Documents\Dispositivo moviles\Code_Samples_Chapter_2\2_11_CustomIME\src\main\AndroidManifest.xml:1:1-20:12
INJECTED from C:\Users\patri\Documents\Dispositivo moviles\Code_Samples_Chapter_2\2_11_CustomIME\src\main\AndroidManifest.xml:1:1-20:12
INJECTED from C:\Users\patri\Documents\Dispositivo moviles\Code_Samples_Chapter_2\2_11_CustomIME\src\main\AndroidManifest.xml:1:1-20:12
MERGED from [com.android.support:support-fragment:24.2.0] C:\Users\patri\.gradle\caches\transforms-2\files-2.1\d862b7e35c640cabbe84b027ed2e8786\support-fragment-24.2.0\AndroidManifest.xml:17:1-27:12
MERGED from [com.android.support:support-core-utils:24.2.0] C:\Users\patri\.gradle\caches\transforms-2\files-2.1\8b901186fdf39b7e4491efac3fb42311\support-core-utils-24.2.0\AndroidManifest.xml:17:1-27:12
MERGED from [com.android.support:support-core-ui:24.2.0] C:\Users\patri\.gradle\caches\transforms-2\files-2.1\9d1e37b184708e3ec782ad3f43de5240\support-core-ui-24.2.0\AndroidManifest.xml:17:1-27:12
MERGED from [com.android.support:support-media-compat:24.2.0] C:\Users\patri\.gradle\caches\transforms-2\files-2.1\e7d74692dc5fc1dfced97d17f3ed0fe8\support-media-compat-24.2.0\AndroidManifest.xml:17:1-27:12
MERGED from [com.android.support:support-compat:24.2.0] C:\Users\patri\.gradle\caches\transforms-2\files-2.1\29030e63f5e8268ff2271585579c6d53\support-compat-24.2.0\AndroidManifest.xml:17:1-27:12
INJECTED from C:\Users\patri\Documents\Dispositivo moviles\Code_Samples_Chapter_2\2_11_CustomIME\src\main\AndroidManifest.xml:1:1-20:12
INJECTED from C:\Users\patri\Documents\Dispositivo moviles\Code_Samples_Chapter_2\2_11_CustomIME\src\main\AndroidManifest.xml:1:1-20:12
INJECTED from C:\Users\patri\Documents\Dispositivo moviles\Code_Samples_Chapter_2\2_11_CustomIME\src\main\AndroidManifest.xml:1:1-20:12
	package
		ADDED from C:\Users\patri\Documents\Dispositivo moviles\Code_Samples_Chapter_2\2_11_CustomIME\src\main\AndroidManifest.xml:2:11-49
		INJECTED from C:\Users\patri\Documents\Dispositivo moviles\Code_Samples_Chapter_2\2_11_CustomIME\src\main\AndroidManifest.xml
		INJECTED from C:\Users\patri\Documents\Dispositivo moviles\Code_Samples_Chapter_2\2_11_CustomIME\src\main\AndroidManifest.xml
	android:versionName
		ADDED from C:\Users\patri\Documents\Dispositivo moviles\Code_Samples_Chapter_2\2_11_CustomIME\src\main\AndroidManifest.xml:4:11-36
		INJECTED from C:\Users\patri\Documents\Dispositivo moviles\Code_Samples_Chapter_2\2_11_CustomIME\src\main\AndroidManifest.xml
		INJECTED from C:\Users\patri\Documents\Dispositivo moviles\Code_Samples_Chapter_2\2_11_CustomIME\src\main\AndroidManifest.xml
	xmlns:android
		ADDED from C:\Users\patri\Documents\Dispositivo moviles\Code_Samples_Chapter_2\2_11_CustomIME\src\main\AndroidManifest.xml:1:11-69
	android:versionCode
		ADDED from C:\Users\patri\Documents\Dispositivo moviles\Code_Samples_Chapter_2\2_11_CustomIME\src\main\AndroidManifest.xml:3:11-34
		INJECTED from C:\Users\patri\Documents\Dispositivo moviles\Code_Samples_Chapter_2\2_11_CustomIME\src\main\AndroidManifest.xml
		INJECTED from C:\Users\patri\Documents\Dispositivo moviles\Code_Samples_Chapter_2\2_11_CustomIME\src\main\AndroidManifest.xml
application
ADDED from C:\Users\patri\Documents\Dispositivo moviles\Code_Samples_Chapter_2\2_11_CustomIME\src\main\AndroidManifest.xml:6:5-18:19
MERGED from [com.android.support:support-fragment:24.2.0] C:\Users\patri\.gradle\caches\transforms-2\files-2.1\d862b7e35c640cabbe84b027ed2e8786\support-fragment-24.2.0\AndroidManifest.xml:25:5-20
MERGED from [com.android.support:support-fragment:24.2.0] C:\Users\patri\.gradle\caches\transforms-2\files-2.1\d862b7e35c640cabbe84b027ed2e8786\support-fragment-24.2.0\AndroidManifest.xml:25:5-20
MERGED from [com.android.support:support-core-utils:24.2.0] C:\Users\patri\.gradle\caches\transforms-2\files-2.1\8b901186fdf39b7e4491efac3fb42311\support-core-utils-24.2.0\AndroidManifest.xml:25:5-20
MERGED from [com.android.support:support-core-utils:24.2.0] C:\Users\patri\.gradle\caches\transforms-2\files-2.1\8b901186fdf39b7e4491efac3fb42311\support-core-utils-24.2.0\AndroidManifest.xml:25:5-20
MERGED from [com.android.support:support-core-ui:24.2.0] C:\Users\patri\.gradle\caches\transforms-2\files-2.1\9d1e37b184708e3ec782ad3f43de5240\support-core-ui-24.2.0\AndroidManifest.xml:25:5-20
MERGED from [com.android.support:support-core-ui:24.2.0] C:\Users\patri\.gradle\caches\transforms-2\files-2.1\9d1e37b184708e3ec782ad3f43de5240\support-core-ui-24.2.0\AndroidManifest.xml:25:5-20
MERGED from [com.android.support:support-media-compat:24.2.0] C:\Users\patri\.gradle\caches\transforms-2\files-2.1\e7d74692dc5fc1dfced97d17f3ed0fe8\support-media-compat-24.2.0\AndroidManifest.xml:25:5-20
MERGED from [com.android.support:support-media-compat:24.2.0] C:\Users\patri\.gradle\caches\transforms-2\files-2.1\e7d74692dc5fc1dfced97d17f3ed0fe8\support-media-compat-24.2.0\AndroidManifest.xml:25:5-20
MERGED from [com.android.support:support-compat:24.2.0] C:\Users\patri\.gradle\caches\transforms-2\files-2.1\29030e63f5e8268ff2271585579c6d53\support-compat-24.2.0\AndroidManifest.xml:25:5-20
MERGED from [com.android.support:support-compat:24.2.0] C:\Users\patri\.gradle\caches\transforms-2\files-2.1\29030e63f5e8268ff2271585579c6d53\support-compat-24.2.0\AndroidManifest.xml:25:5-20
	android:label
		ADDED from C:\Users\patri\Documents\Dispositivo moviles\Code_Samples_Chapter_2\2_11_CustomIME\src\main\AndroidManifest.xml:8:9-41
	android:icon
		ADDED from C:\Users\patri\Documents\Dispositivo moviles\Code_Samples_Chapter_2\2_11_CustomIME\src\main\AndroidManifest.xml:7:9-45
	android:theme
		ADDED from C:\Users\patri\Documents\Dispositivo moviles\Code_Samples_Chapter_2\2_11_CustomIME\src\main\AndroidManifest.xml:9:9-40
activity#com.androidrecipes.customime.MainActivity
ADDED from C:\Users\patri\Documents\Dispositivo moviles\Code_Samples_Chapter_2\2_11_CustomIME\src\main\AndroidManifest.xml:10:9-17:20
	android:label
		ADDED from C:\Users\patri\Documents\Dispositivo moviles\Code_Samples_Chapter_2\2_11_CustomIME\src\main\AndroidManifest.xml:12:13-56
	android:name
		ADDED from C:\Users\patri\Documents\Dispositivo moviles\Code_Samples_Chapter_2\2_11_CustomIME\src\main\AndroidManifest.xml:11:13-41
intent-filter#action:name:android.intent.action.MAIN+category:name:android.intent.category.LAUNCHER
ADDED from C:\Users\patri\Documents\Dispositivo moviles\Code_Samples_Chapter_2\2_11_CustomIME\src\main\AndroidManifest.xml:13:13-16:29
action#android.intent.action.MAIN
ADDED from C:\Users\patri\Documents\Dispositivo moviles\Code_Samples_Chapter_2\2_11_CustomIME\src\main\AndroidManifest.xml:14:17-68
	android:name
		ADDED from C:\Users\patri\Documents\Dispositivo moviles\Code_Samples_Chapter_2\2_11_CustomIME\src\main\AndroidManifest.xml:14:25-66
category#android.intent.category.LAUNCHER
ADDED from C:\Users\patri\Documents\Dispositivo moviles\Code_Samples_Chapter_2\2_11_CustomIME\src\main\AndroidManifest.xml:15:17-76
	android:name
		ADDED from C:\Users\patri\Documents\Dispositivo moviles\Code_Samples_Chapter_2\2_11_CustomIME\src\main\AndroidManifest.xml:15:27-74
uses-sdk
INJECTED from C:\Users\patri\Documents\Dispositivo moviles\Code_Samples_Chapter_2\2_11_CustomIME\src\main\AndroidManifest.xml reason: use-sdk injection requested
INJECTED from C:\Users\patri\Documents\Dispositivo moviles\Code_Samples_Chapter_2\2_11_CustomIME\src\main\AndroidManifest.xml
INJECTED from C:\Users\patri\Documents\Dispositivo moviles\Code_Samples_Chapter_2\2_11_CustomIME\src\main\AndroidManifest.xml
MERGED from [com.android.support:support-fragment:24.2.0] C:\Users\patri\.gradle\caches\transforms-2\files-2.1\d862b7e35c640cabbe84b027ed2e8786\support-fragment-24.2.0\AndroidManifest.xml:21:5-23:60
MERGED from [com.android.support:support-fragment:24.2.0] C:\Users\patri\.gradle\caches\transforms-2\files-2.1\d862b7e35c640cabbe84b027ed2e8786\support-fragment-24.2.0\AndroidManifest.xml:21:5-23:60
MERGED from [com.android.support:support-core-utils:24.2.0] C:\Users\patri\.gradle\caches\transforms-2\files-2.1\8b901186fdf39b7e4491efac3fb42311\support-core-utils-24.2.0\AndroidManifest.xml:21:5-23:61
MERGED from [com.android.support:support-core-utils:24.2.0] C:\Users\patri\.gradle\caches\transforms-2\files-2.1\8b901186fdf39b7e4491efac3fb42311\support-core-utils-24.2.0\AndroidManifest.xml:21:5-23:61
MERGED from [com.android.support:support-core-ui:24.2.0] C:\Users\patri\.gradle\caches\transforms-2\files-2.1\9d1e37b184708e3ec782ad3f43de5240\support-core-ui-24.2.0\AndroidManifest.xml:21:5-23:58
MERGED from [com.android.support:support-core-ui:24.2.0] C:\Users\patri\.gradle\caches\transforms-2\files-2.1\9d1e37b184708e3ec782ad3f43de5240\support-core-ui-24.2.0\AndroidManifest.xml:21:5-23:58
MERGED from [com.android.support:support-media-compat:24.2.0] C:\Users\patri\.gradle\caches\transforms-2\files-2.1\e7d74692dc5fc1dfced97d17f3ed0fe8\support-media-compat-24.2.0\AndroidManifest.xml:21:5-23:63
MERGED from [com.android.support:support-media-compat:24.2.0] C:\Users\patri\.gradle\caches\transforms-2\files-2.1\e7d74692dc5fc1dfced97d17f3ed0fe8\support-media-compat-24.2.0\AndroidManifest.xml:21:5-23:63
MERGED from [com.android.support:support-compat:24.2.0] C:\Users\patri\.gradle\caches\transforms-2\files-2.1\29030e63f5e8268ff2271585579c6d53\support-compat-24.2.0\AndroidManifest.xml:21:5-23:58
MERGED from [com.android.support:support-compat:24.2.0] C:\Users\patri\.gradle\caches\transforms-2\files-2.1\29030e63f5e8268ff2271585579c6d53\support-compat-24.2.0\AndroidManifest.xml:21:5-23:58
INJECTED from C:\Users\patri\Documents\Dispositivo moviles\Code_Samples_Chapter_2\2_11_CustomIME\src\main\AndroidManifest.xml
INJECTED from C:\Users\patri\Documents\Dispositivo moviles\Code_Samples_Chapter_2\2_11_CustomIME\src\main\AndroidManifest.xml
	tools:overrideLibrary
		ADDED from [com.android.support:support-fragment:24.2.0] C:\Users\patri\.gradle\caches\transforms-2\files-2.1\d862b7e35c640cabbe84b027ed2e8786\support-fragment-24.2.0\AndroidManifest.xml:23:9-57
	android:targetSdkVersion
		INJECTED from C:\Users\patri\Documents\Dispositivo moviles\Code_Samples_Chapter_2\2_11_CustomIME\src\main\AndroidManifest.xml
		ADDED from C:\Users\patri\Documents\Dispositivo moviles\Code_Samples_Chapter_2\2_11_CustomIME\src\main\AndroidManifest.xml
		INJECTED from C:\Users\patri\Documents\Dispositivo moviles\Code_Samples_Chapter_2\2_11_CustomIME\src\main\AndroidManifest.xml
	android:minSdkVersion
		INJECTED from C:\Users\patri\Documents\Dispositivo moviles\Code_Samples_Chapter_2\2_11_CustomIME\src\main\AndroidManifest.xml
		ADDED from C:\Users\patri\Documents\Dispositivo moviles\Code_Samples_Chapter_2\2_11_CustomIME\src\main\AndroidManifest.xml
		INJECTED from C:\Users\patri\Documents\Dispositivo moviles\Code_Samples_Chapter_2\2_11_CustomIME\src\main\AndroidManifest.xml
