-- Merging decision tree log ---
manifest
ADDED from C:\Users\Dell\AndroidStudioProjects\Chapter05_Source\5_03_SimplePersist\src\main\AndroidManifest.xml:1:1-16:12
INJECTED from C:\Users\Dell\AndroidStudioProjects\Chapter05_Source\5_03_SimplePersist\src\main\AndroidManifest.xml:1:1-16:12
INJECTED from C:\Users\Dell\AndroidStudioProjects\Chapter05_Source\5_03_SimplePersist\src\main\AndroidManifest.xml:1:1-16:12
INJECTED from C:\Users\Dell\AndroidStudioProjects\Chapter05_Source\5_03_SimplePersist\src\main\AndroidManifest.xml:1:1-16:12
INJECTED from C:\Users\Dell\AndroidStudioProjects\Chapter05_Source\5_03_SimplePersist\src\main\AndroidManifest.xml:1:1-16:12
INJECTED from C:\Users\Dell\AndroidStudioProjects\Chapter05_Source\5_03_SimplePersist\src\main\AndroidManifest.xml:1:1-16:12
INJECTED from C:\Users\Dell\AndroidStudioProjects\Chapter05_Source\5_03_SimplePersist\src\main\AndroidManifest.xml:1:1-16:12
	package
		ADDED from C:\Users\Dell\AndroidStudioProjects\Chapter05_Source\5_03_SimplePersist\src\main\AndroidManifest.xml:2:11-53
		INJECTED from C:\Users\Dell\AndroidStudioProjects\Chapter05_Source\5_03_SimplePersist\src\main\AndroidManifest.xml
		INJECTED from C:\Users\Dell\AndroidStudioProjects\Chapter05_Source\5_03_SimplePersist\src\main\AndroidManifest.xml
	android:versionName
		INJECTED from C:\Users\Dell\AndroidStudioProjects\Chapter05_Source\5_03_SimplePersist\src\main\AndroidManifest.xml
		ADDED from C:\Users\Dell\AndroidStudioProjects\Chapter05_Source\5_03_SimplePersist\src\main\AndroidManifest.xml:1:1-16:12
		INJECTED from C:\Users\Dell\AndroidStudioProjects\Chapter05_Source\5_03_SimplePersist\src\main\AndroidManifest.xml
	android:versionCode
		INJECTED from C:\Users\Dell\AndroidStudioProjects\Chapter05_Source\5_03_SimplePersist\src\main\AndroidManifest.xml
		ADDED from C:\Users\Dell\AndroidStudioProjects\Chapter05_Source\5_03_SimplePersist\src\main\AndroidManifest.xml:1:1-16:12
		INJECTED from C:\Users\Dell\AndroidStudioProjects\Chapter05_Source\5_03_SimplePersist\src\main\AndroidManifest.xml
	xmlns:android
		ADDED from C:\Users\Dell\AndroidStudioProjects\Chapter05_Source\5_03_SimplePersist\src\main\AndroidManifest.xml:1:11-69
application
ADDED from C:\Users\Dell\AndroidStudioProjects\Chapter05_Source\5_03_SimplePersist\src\main\AndroidManifest.xml:4:5-14:19
	android:label
		ADDED from C:\Users\Dell\AndroidStudioProjects\Chapter05_Source\5_03_SimplePersist\src\main\AndroidManifest.xml:5:9-41
	android:icon
		ADDED from C:\Users\Dell\AndroidStudioProjects\Chapter05_Source\5_03_SimplePersist\src\main\AndroidManifest.xml:6:9-45
	android:theme
		ADDED from C:\Users\Dell\AndroidStudioProjects\Chapter05_Source\5_03_SimplePersist\src\main\AndroidManifest.xml:7:9-40
activity#com.androidrecipes.simplepersist.FormActivity
ADDED from C:\Users\Dell\AndroidStudioProjects\Chapter05_Source\5_03_SimplePersist\src\main\AndroidManifest.xml:8:9-13:20
	android:name
		ADDED from C:\Users\Dell\AndroidStudioProjects\Chapter05_Source\5_03_SimplePersist\src\main\AndroidManifest.xml:8:19-47
intent-filter#action:name:android.intent.action.MAIN+category:name:android.intent.category.LAUNCHER
ADDED from C:\Users\Dell\AndroidStudioProjects\Chapter05_Source\5_03_SimplePersist\src\main\AndroidManifest.xml:9:13-12:29
action#android.intent.action.MAIN
ADDED from C:\Users\Dell\AndroidStudioProjects\Chapter05_Source\5_03_SimplePersist\src\main\AndroidManifest.xml:10:17-68
	android:name
		ADDED from C:\Users\Dell\AndroidStudioProjects\Chapter05_Source\5_03_SimplePersist\src\main\AndroidManifest.xml:10:25-66
category#android.intent.category.LAUNCHER
ADDED from C:\Users\Dell\AndroidStudioProjects\Chapter05_Source\5_03_SimplePersist\src\main\AndroidManifest.xml:11:17-76
	android:name
		ADDED from C:\Users\Dell\AndroidStudioProjects\Chapter05_Source\5_03_SimplePersist\src\main\AndroidManifest.xml:11:27-74
uses-sdk
INJECTED from C:\Users\Dell\AndroidStudioProjects\Chapter05_Source\5_03_SimplePersist\src\main\AndroidManifest.xml reason: use-sdk injection requested
INJECTED from C:\Users\Dell\AndroidStudioProjects\Chapter05_Source\5_03_SimplePersist\src\main\AndroidManifest.xml
INJECTED from C:\Users\Dell\AndroidStudioProjects\Chapter05_Source\5_03_SimplePersist\src\main\AndroidManifest.xml
INJECTED from C:\Users\Dell\AndroidStudioProjects\Chapter05_Source\5_03_SimplePersist\src\main\AndroidManifest.xml
INJECTED from C:\Users\Dell\AndroidStudioProjects\Chapter05_Source\5_03_SimplePersist\src\main\AndroidManifest.xml
	android:targetSdkVersion
		INJECTED from C:\Users\Dell\AndroidStudioProjects\Chapter05_Source\5_03_SimplePersist\src\main\AndroidManifest.xml
		ADDED from C:\Users\Dell\AndroidStudioProjects\Chapter05_Source\5_03_SimplePersist\src\main\AndroidManifest.xml
		INJECTED from C:\Users\Dell\AndroidStudioProjects\Chapter05_Source\5_03_SimplePersist\src\main\AndroidManifest.xml
	android:minSdkVersion
		INJECTED from C:\Users\Dell\AndroidStudioProjects\Chapter05_Source\5_03_SimplePersist\src\main\AndroidManifest.xml
		ADDED from C:\Users\Dell\AndroidStudioProjects\Chapter05_Source\5_03_SimplePersist\src\main\AndroidManifest.xml
		INJECTED from C:\Users\Dell\AndroidStudioProjects\Chapter05_Source\5_03_SimplePersist\src\main\AndroidManifest.xml
